Change Component Footprint: Designator=J3 Old Footprint=XP4 2.54 New Footprint=XP4 2
Added Component: Designator=BUTTON_1(TACTA-angel)
Added Component: Designator=C1(C0805)
Added Component: Designator=C2(C0805)
Added Component: Designator=C3(CAPPR_3216)
Added Component: Designator=C4(C0805)
Added Component: Designator=C5(C0805)
Added Component: Designator=C6(C0805)
Added Component: Designator=C7(C0805)
Added Component: Designator=C8(C0805)
Added Component: Designator=C9(CAPPR_3216)
Added Component: Designator=C10(C0805)
Added Component: Designator=C?(C0805)
Added Component: Designator=J1(XP3 2)
Added Component: Designator=J2(XP2 2.54)
Added Component: Designator=J4(XP2 2.54)
Added Component: Designator=J5(XP2 2.54)
Added Component: Designator=L1(R0805)
Added Component: Designator=L2(CDRH2D)
Added Component: Designator=R1(R0805)
Added Component: Designator=R2(R0805)
Added Component: Designator=R3(R0805)
Added Component: Designator=R4(R0805)
Added Component: Designator=R5(R0805)
Added Component: Designator=R6(R0805)
Added Component: Designator=R7(R0805)
Added Component: Designator=R8(R0805)
Added Component: Designator=R9(R0805)
Added Component: Designator=R10(R0805)
Added Component: Designator=R11(R0805)
Added Component: Designator=R12(R0805)
Added Component: Designator=R13(R0805)
Added Component: Designator=R14(R0805)
Added Component: Designator=R15(R0805)
Added Component: Designator=R16(R0805)
Added Component: Designator=R17(R0805)
Added Component: Designator=R18(R0805)
Added Component: Designator=R19(R0805)
Added Component: Designator=R20(R0805)
Added Component: Designator=R21(R0805)
Added Component: Designator=R22(R0805)
Added Component: Designator=R23(R0805)
Added Component: Designator=R24(R0805)
Added Component: Designator=R25(R0805)
Added Component: Designator=R26(R0805)
Added Component: Designator=U2(SOT-23-6)
Added Component: Designator=VD1(SOD123)
Added Component: Designator=VT_1(SOT-23)
Added Component: Designator=VT_2(SOT-23)
Added Component: Designator=VT_3(SOT-23)
Added Component: Designator=VT_4(SOT-23)
Added Pin To Net: NetName=+8.4V Pin=BUTTON_1-1
Added Pin To Net: NetName=NetBUTTON_1_2 Pin=BUTTON_1-2
Added Pin To Net: NetName=GND Pin=BUTTON_1-3
Added Pin To Net: NetName=+3.3 V Pin=C1-1
Added Pin To Net: NetName=GND Pin=C1-2
Added Pin To Net: NetName=GND Pin=C2-1
Added Pin To Net: NetName=NetC2_2 Pin=C2-2
Added Pin To Net: NetName=+3.3 V Pin=C3-1
Added Pin To Net: NetName=GND Pin=C3-2
Added Pin To Net: NetName=GND Pin=C4-1
Added Pin To Net: NetName=+3.3 V Pin=C4-2
Added Pin To Net: NetName=GND Pin=C5-1
Added Pin To Net: NetName=NetC5_2 Pin=C5-2
Added Pin To Net: NetName=NetC6_1 Pin=C6-1
Added Pin To Net: NetName=NetBUTTON_1_2 Pin=C6-2
Added Pin To Net: NetName=NetC7_1 Pin=C7-1
Added Pin To Net: NetName=NetC7_2 Pin=C7-2
Added Pin To Net: NetName=GND Pin=C8-1
Added Pin To Net: NetName=+8.4V Pin=C8-2
Added Pin To Net: NetName=+8.4V Pin=C9-1
Added Pin To Net: NetName=GND Pin=C9-2
Added Pin To Net: NetName=GND Pin=C10-1
Added Pin To Net: NetName=+8.4V Pin=C10-2
Added Pin To Net: NetName=GND Pin=C?-1
Added Pin To Net: NetName=+3.3 V Pin=C?-2
Added Pin To Net: NetName=GND Pin=J1-1
Added Pin To Net: NetName=NetJ1_2 Pin=J1-2
Added Pin To Net: NetName=NetJ1_2 Pin=J1-3
Added Pin To Net: NetName=GND Pin=J2-1
Added Pin To Net: NetName=NetJ2_2 Pin=J2-2
Added Pin To Net: NetName=+8.4V Pin=J4-1
Added Pin To Net: NetName=GND Pin=J4-2
Added Pin To Net: NetName=NetJ5_1 Pin=J5-1
Added Pin To Net: NetName=+3.3 V Pin=J5-2
Added Pin To Net: NetName=+3.3 V Pin=L1-1
Added Pin To Net: NetName=NetC5_2 Pin=L1-2
Added Pin To Net: NetName=NetC7_2 Pin=L2-1
Added Pin To Net: NetName=+3.3 V Pin=L2-2
Added Pin To Net: NetName=NetJ1_2 Pin=R1-1
Added Pin To Net: NetName=+3.3 V Pin=R1-2
Added Pin To Net: NetName=NetR2_1 Pin=R2-1
Added Pin To Net: NetName=NetJ1_2 Pin=R3-1
Added Pin To Net: NetName=+3.3 V Pin=R3-2
Added Pin To Net: NetName=NetC2_2 Pin=R4-1
Added Pin To Net: NetName=+8.4V Pin=R4-2
Added Pin To Net: NetName=+3.3 V Pin=R5-1
Added Pin To Net: NetName=NetR5_2 Pin=R5-2
Added Pin To Net: NetName=GND Pin=R6-1
Added Pin To Net: NetName=NetC2_2 Pin=R6-2
Added Pin To Net: NetName=NetJ2_2 Pin=R7-1
Added Pin To Net: NetName=+3.3 V Pin=R7-2
Added Pin To Net: NetName=NetR8_1 Pin=R8-1
Added Pin To Net: NetName=+3.3 V Pin=R8-2
Added Pin To Net: NetName=NetR9_1 Pin=R9-1
Added Pin To Net: NetName=+3.3 V Pin=R9-2
Added Pin To Net: NetName=GND Pin=R10-1
Added Pin To Net: NetName=NetR10_2 Pin=R10-2
Added Pin To Net: NetName=NetR11_1 Pin=R11-1
Added Pin To Net: NetName=GND Pin=R11-2
Added Pin To Net: NetName=NetR12_1 Pin=R12-1
Added Pin To Net: NetName=NetR12_2 Pin=R12-2
Added Pin To Net: NetName=NetR13_1 Pin=R13-1
Added Pin To Net: NetName=NetR13_2 Pin=R13-2
Added Pin To Net: NetName=NetBUTTON_1_2 Pin=R14-1
Added Pin To Net: NetName=NetR11_1 Pin=R14-2
Added Pin To Net: NetName=+3.3 V Pin=R15-1
Added Pin To Net: NetName=NetLED_1_2 Pin=R15-2
Added Pin To Net: NetName=NetR11_1 Pin=R16-2
Added Pin To Net: NetName=GND Pin=R17-1
Added Pin To Net: NetName=NetR12_2 Pin=R17-2
Added Pin To Net: NetName=GND Pin=R18-1
Added Pin To Net: NetName=NetR13_2 Pin=R18-2
Added Pin To Net: NetName=+8.4V Pin=R19-1
Added Pin To Net: NetName=NetC6_1 Pin=R19-2
Added Pin To Net: NetName=+3.3 V Pin=R20-1
Added Pin To Net: NetName=NetLED_2_2 Pin=R20-2
Added Pin To Net: NetName=+3.3 V Pin=R21-1
Added Pin To Net: NetName=NetR21_2 Pin=R21-2
Added Pin To Net: NetName=NetR22_1 Pin=R22-1
Added Pin To Net: NetName=NetR22_2 Pin=R22-2
Added Pin To Net: NetName=NetR23_1 Pin=R23-1
Added Pin To Net: NetName=NetR23_2 Pin=R23-2
Added Pin To Net: NetName=GND Pin=R24-1
Added Pin To Net: NetName=NetR22_2 Pin=R24-2
Added Pin To Net: NetName=+3.3 V Pin=R25-2
Added Pin To Net: NetName=GND Pin=R26-1
Added Pin To Net: NetName=GND Pin=U2-1
Added Pin To Net: NetName=NetC7_2 Pin=U2-2
Added Pin To Net: NetName=+8.4V Pin=U2-3
Added Pin To Net: NetName=NetR23_2 Pin=U2-5
Added Pin To Net: NetName=NetC7_1 Pin=U2-6
Added Pin To Net: NetName=NetR23_1 Pin=VD1-1
Added Pin To Net: NetName=NetR11_1 Pin=VD1-2
Added Pin To Net: NetName=NetR12_2 Pin=VT_1-1
Added Pin To Net: NetName=GND Pin=VT_1-2
Added Pin To Net: NetName=NetJ5_1 Pin=VT_1-3
Added Pin To Net: NetName=NetR13_2 Pin=VT_2-1
Added Pin To Net: NetName=GND Pin=VT_2-2
Added Pin To Net: NetName=NetBuzzer_1_2 Pin=VT_2-3
Added Pin To Net: NetName=NetR21_2 Pin=VT_3-1
Added Pin To Net: NetName=+3.3 V Pin=VT_3-2
Added Pin To Net: NetName=NetR22_1 Pin=VT_3-3
Added Pin To Net: NetName=NetR22_2 Pin=VT_4-1
Added Pin To Net: NetName=GND Pin=VT_4-2
Added Pin To Net: NetName=NetLED_1_1 Pin=VT_4-3
Added Pin To Net: NetName=NetR25_1 Pin=R25-1
Added Pin To Net: NetName=NetR25_1 Pin=R26-2
Added Pin To Net: NetName=NetR25_1 Pin=U2-4
Added Net: Name=NetR25_1
Added Member To Class: ClassName=GRANATE_v3 Member=Component BUTTON_1 TACTA
Added Member To Class: ClassName=GRANATE_v3 Member=Component C1 CAP_0805
Added Member To Class: ClassName=GRANATE_v3 Member=Component C2 CAP_0805
Added Member To Class: ClassName=GRANATE_v3 Member=Component C3 TANTAL_A
Added Member To Class: ClassName=GRANATE_v3 Member=Component C4 CAP_0805
Added Member To Class: ClassName=GRANATE_v3 Member=Component C5 CAP_0805
Added Member To Class: ClassName=GRANATE_v3 Member=Component C6 CAP_0805
Added Member To Class: ClassName=GRANATE_v3 Member=Component C7 CAP_0805
Added Member To Class: ClassName=GRANATE_v3 Member=Component C8 CAP_0805
Added Member To Class: ClassName=GRANATE_v3 Member=Component C9 TANTAL_A
Added Member To Class: ClassName=GRANATE_v3 Member=Component C10 CAP_0805
Added Member To Class: ClassName=GRANATE_v3 Member=Component C? CAP_0805
Added Member To Class: ClassName=GRANATE_v3 Member=Component J1 CONN_3
Added Member To Class: ClassName=GRANATE_v3 Member=Component J2 CONN_2
Added Member To Class: ClassName=GRANATE_v3 Member=Component J4 CONN_2
Added Member To Class: ClassName=GRANATE_v3 Member=Component J5 CONN_2
Added Member To Class: ClassName=GRANATE_v3 Member=Component L1 BLM21
Added Member To Class: ClassName=GRANATE_v3 Member=Component L2 CDRH2D14NP
Added Member To Class: ClassName=GRANATE_v3 Member=Component R1 RES-0805
Added Member To Class: ClassName=GRANATE_v3 Member=Component R2 RES-0805
Added Member To Class: ClassName=GRANATE_v3 Member=Component R3 RES-0805
Added Member To Class: ClassName=GRANATE_v3 Member=Component R4 RES-0805
Added Member To Class: ClassName=GRANATE_v3 Member=Component R5 RES-0805
Added Member To Class: ClassName=GRANATE_v3 Member=Component R6 RES-0805
Added Member To Class: ClassName=GRANATE_v3 Member=Component R7 RES-0805
Added Member To Class: ClassName=GRANATE_v3 Member=Component R8 RES-0805
Added Member To Class: ClassName=GRANATE_v3 Member=Component R9 RES-0805
Added Member To Class: ClassName=GRANATE_v3 Member=Component R10 RES-0805
Added Member To Class: ClassName=GRANATE_v3 Member=Component R11 RES-0805
Added Member To Class: ClassName=GRANATE_v3 Member=Component R12 RES-0805
Added Member To Class: ClassName=GRANATE_v3 Member=Component R13 RES-0805
Added Member To Class: ClassName=GRANATE_v3 Member=Component R14 RES-0805
Added Member To Class: ClassName=GRANATE_v3 Member=Component R15 RES-0805
Added Member To Class: ClassName=GRANATE_v3 Member=Component R16 RES-0805
Added Member To Class: ClassName=GRANATE_v3 Member=Component R17 RES-0805
Added Member To Class: ClassName=GRANATE_v3 Member=Component R18 RES-0805
Added Member To Class: ClassName=GRANATE_v3 Member=Component R19 RES-0805
Added Member To Class: ClassName=GRANATE_v3 Member=Component R20 RES-0805
Added Member To Class: ClassName=GRANATE_v3 Member=Component R21 RES-0805
Added Member To Class: ClassName=GRANATE_v3 Member=Component R22 RES-0805
Added Member To Class: ClassName=GRANATE_v3 Member=Component R23 RES-0805
Added Member To Class: ClassName=GRANATE_v3 Member=Component R24 RES-0805
Added Member To Class: ClassName=GRANATE_v3 Member=Component R25 RES-0805
Added Member To Class: ClassName=GRANATE_v3 Member=Component R26 RES-0805
Added Member To Class: ClassName=GRANATE_v3 Member=Component U2 TPS562200DDCT
Added Member To Class: ClassName=GRANATE_v3 Member=Component VD1 MBR_0530
Added Member To Class: ClassName=GRANATE_v3 Member=Component VT_1 IRFLM8244
Added Member To Class: ClassName=GRANATE_v3 Member=Component VT_2 IRFLM8244
Added Member To Class: ClassName=GRANATE_v3 Member=Component VT_3 BC807
Added Member To Class: ClassName=GRANATE_v3 Member=Component VT_4 IRFLM8244
