Change component parameters: Designator = "VT_2"; Footprint = "SOT-23"; UniqueID = "\TDWTRMVW"
Change component parameters. Clean all parameters for all variants
Change component parameters (AddParameter): Name = "Value"; Value = "IRFLM8244"; VariantName = "[No Variations]"
