Change component parameters: Designator = "L2"; Footprint = "CDRH2D"; UniqueID = "\SXNAXAQP"
Change component parameters. Clean all parameters for all variants
Change component parameters (AddParameter): Name = "H"; Value = "1.55 mm"; VariantName = "[No Variations]"
Change component parameters (AddParameter): Name = "Inductance( ?H )"; Value = "2.2 ?H"; VariantName = "[No Variations]"
Change component parameters (AddParameter): Name = "L"; Value = "3 mm"; VariantName = "[No Variations]"
Change component parameters (AddParameter): Name = "RatedCurren"; Value = "1.5 A"; VariantName = "[No Variations]"
Change component parameters (AddParameter): Name = "Value"; Value = "CDRH2D14NP-2.2 uH"; VariantName = "[No Variations]"
Change component parameters (AddParameter): Name = "W"; Value = "3 mm"; VariantName = "[No Variations]"
